…
    ## # A tibble: 1 × 1
    ##   `n_distinct(aisle)`
    ##                 <int>
    ## 1                 134

``` r
#finding aisles with the most items ordered
instacart |> count(aisle, sort = TRUE)
```

    ## # A tibble: 134 × 2
    ##    aisle                              n
    ##    <chr>                          <int>
    ##  1 fresh vegetables              150609
    ##  2 fresh fruits                  150473
    ##  3 packaged vegetables fruits     78493
    ##  4 yogurt                         55240
    ##  5 packaged cheese                41699
    ##  6 water seltzer sparkling water  36617
    ##  7 milk                           32644
    ##  8 chips pretzels                 31269
    ##  9 soy lactosefree                26240
    ## 10 bread                          23635
    ## # ℹ 124 more rows
…
- There are 116 months between January 2015 and August 2024. How many
  ZIP codes are observed 116 times? How many are observed fewer than 10
  times? Why are some ZIP codes are observed rarely and others observed
  in each month?

``` r
#How many ZIP codes are observed 116 times?

join_zillow_df |> 
  count(zip_code) |> 
  filter(n == 116)
```

    ## # A tibble: 48 × 2
    ##    zip_code     n
    ##       <dbl> <int>
    ##  1    10001   116
    ##  2    10002   116
    ##  3    10003   116
    ##  4    10005   116
    ##  5    10010   116
    ##  6    10012   116
    ##  7    10013   116
    ##  8    10014   116
    ##  9    10017   116
    ## 10    10018   116
    ## # ℹ 38 more rows

There are **48 zip codes** that are observed 116 times.

``` r
#How many ZIP codes are observed fewer than 10 times?

join_zillow_df |> 
  count(zip_code) |> 
  filter(n < 10)
```

    ## # A tibble: 26 × 2
    ##    zip_code     n
    ##       <dbl> <int>
    ##  1    10044     9
    ##  2    10162     2
    ##  3    10303     2
    ##  4    10308     3
    ##  5    10453     1
    ##  6    10455     3
    ##  7    10456     4
    ##  8    10459     2
    ##  9    10460     2
    ## 10    10470     1
    ## # ℹ 16 more rows
…
